SDS348 Project 1: Exploratory Data Analysis
…
truedat <- data %>% filter(match == 1)

nrow(truedat)/nrow(data2) * 100 # what percentage of ufo sightings after 1957 occurred the same day as a rocket launch?

## [1] 79.72945

The newly joined dataset was grouped by the date of event, and a count was added to determine how many sightings occurred for each date. A new column was added called “match”, which I used to determine whether or not the launch date and sighting date were the same for a given row. Filtering the dataset to only include matching launches/sightings was important for determining the relationships between those variables. The “data2” variable was created to only account for launches/sightings that occurred between the years 1957 and 2014. Dividing the number of matches by the total number of sightings (1957-2014) gives us 0.797, meaning roughly 79.7% of UFO sightings occurred on days where a rocket launch occurred!

truedat %>% group_by(ufo_shape) %>% # max encounter length for each ufo shape (minutes)
  summarize(max_encounter = max(encounter_length/60)) 

## # A tibble: 23 x 2
##    ufo_shape max_encounter
##    <chr>             <dbl>
##  1 changing           1230
##  2 chevron             240
##  3 cigar              2880
##  4 circle             4320
##  5 cone                 45
##  6 cross                30
##  7 cylinder             60
##  8 delta                 7
##  9 diamond             120
## 10 disk                630
## # … with 13 more rows
…
## # A tibble: 1 x 23
##   fireball   egg cigar sphere changing light circle  disk diamond other chevron
##      <dbl> <dbl> <dbl>  <dbl>    <dbl> <dbl>  <dbl> <dbl>   <dbl> <dbl>   <dbl>
## 1    1014.  58.2  53.4   53.2     31.5  28.5   26.2  21.8    17.7  16.6    14.8
## # … with 12 more variables: `NA` <dbl>, oval <dbl>, unknown <dbl>, flash <dbl>,
## #   triangle <dbl>, cone <dbl>, cross <dbl>, formation <dbl>, teardrop <dbl>,
## #   delta <dbl>, rectangle <dbl>, cylinder <dbl>

  #pivot_longer(cols = c(fireball:cylinder), names_to = "ufo_shape", values_to = "mean_encounter_length")

I began summarizing the data by grouping it by the reported UFO shape. The maximum encounter length (in minutes) was determined for each shape registered. Next, the mean encounter length (in minutes) was determined for each shape and the result was piped into pivot_wider in order to better visualize the data.

truedat %>% summarize(median_encounter = median(encounter_hour)) # median encounter hour for each event date

## # A tibble: 632 x 2
##    event_date median_encounter
##    <date>                <dbl>
##  1 1959-07-16             18  
##  2 1959-08-13             21.5
##  3 1959-08-15             15  
##  4 1960-04-01             21  
##  5 1960-08-10              9.5
##  6 1961-02-22             20  
##  7 1961-06-30             17  
##  8 1961-08-30              0  
##  9 1962-05-15             21  
## 10 1962-05-30             20  
## # … with 622 more rows

truedat %>% group_by(launch_year) %>% # mean and sd encounter length for each launch year (minutes)
  summarize(mean_encounter = mean(encounter_length/60, na.rm = T), sd_encounter = sd(encounter_length/60, na.rm = T)) %>%
  round(1)

## # A tibble: 56 x 3
##    launch_year mean_encounter sd_encounter
##          <dbl>          <dbl>        <dbl>
##  1        1959           20.8         17.7
##  2        1960            8.4         10.3
##  3        1961          506.        1164  
##  4        1962            3.5          3  
##  5        1963           97.8        137. 
##  6        1964            9.5         18  
##  7        1965         3881.       18963. 
##  8        1966           11.8         20.1
##  9        1967            6.2          8.1
## 10        1968           10.1         14.5
## # … with 46 more rows

truedat %>% group_by(state, category) %>%  # which state had the most successful rocket launches when a ufo sighting is reported?
  filter(category == "O") %>% 
  summarize(count = n()) %>% 
  arrange(desc(count))

## # A tibble: 51 x 3
## # Groups:   state [51]
##    state category count
##    <chr> <chr>    <int>
##  1 ca    O          527
##  2 fl    O          258
##  3 wa    O          235
##  4 tx    O          189
##  5 ny    O          186
##  6 pa    O          153
##  7 az    O          139
##  8 oh    O          126
##  9 or    O          111
## 10 il    O           96
## # … with 41 more rows

truedat %>% group_by(state, category) %>% # which state had the most unsuccessful launches when a ufo sighting was reported?
  filter(category == "F") %>% 
  summarize(count = n()) %>% 
  arrange(desc(count))

## # A tibble: 34 x 3
## # Groups:   state [34]
##    state category count
##    <chr> <chr>    <int>
##  1 ca    F           19
##  2 nc    F            7
##  3 il    F            6
##  4 md    F            6
##  5 oh    F            6
##  6 tx    F            6
##  7 nj    F            5
##  8 wa    F            5
##  9 co    F            4
## 10 fl    F            4
## # … with 24 more rows
…
